tp ^ ^ ^1
particle crit ~ ~ ~ 0 0 0 0 1
function mech:hit/hit
scoreboard players add @s betweenTick 1
execute if block ~ ~ ~ #mech:translucent if score @s[tag=!killMe] betweenTick < @s moveVelocity at @s run function mech:bullet/mig
execute unless block ~ ~ ~ #mech:translucent run tag @s add killMe